<?xml version="1.0" encoding="utf-8"?>
<!-- Generator: Adobe Illustrator 26.2.1, SVG Export Plug-In . SVG Version: 6.00 Build 0)  -->
<svg version="1.1" baseProfile="tiny" id="Calque_1"
	 xmlns="http://www.w3.org/2000/svg" xmlns:xlink="http://www.w3.org/1999/xlink" x="0px" y="0px" viewBox="0 0 512 512"
	 overflow="visible" xml:space="preserve">
<g>
	<path fill-rule="evenodd" fill="#C9177E" d="M377.5,214.5h0.2l0.2,0h1.1l0.2,0h0l0.2,0h0l0.2,0h0l0.2,0h0l0.2,0h0l0.2,0h0l0.2,0h0
		l0.2,0h0l0.2,0h0l0.2,0h0l0.2,0h0l0.2,0h0l0.2,0h0l0.2,0h0l0.2,0h0l0.2,0h0l0.2,0h0l0.2,0h0l0.2,0h0l0.2,0h0l0.2,0h0l0.2,0h0l0.2,0
		h0l0.2,0h0l0.2,0h0l0.2,0h0l0.2,0l0,0l0.2,0h0l0.2,0h0l0.2,0h0l0.2,0h0l0.2,0h0l0.2,0h0l0.2,0l0,0l0.2,0l0,0l0.2,0h0l0.2,0h0l0.2,0
		h0l0.2,0h0l0.2,0h0l0.2,0h0l0.2,0l0,0l0.2,0h0l0.2,0l0,0l0.2,0h0l0.2,0l0,0l0.2,0l0,0l0.2,0l0,0l0.2,0h0l0.2,0l0,0l0.2,0l0,0l0.2,0
		l0,0l0.2,0l0,0l0.2,0h0l0.2,0.1h0l0.2,0l0,0l0.2,0h0l0.2,0.1l0,0l0.2,0.1l0,0l0.2,0.1l0,0l0.2,0.1l0,0l0.2,0.1l0,0l0.2,0.1l0,0
		l0.2,0.1l0,0l0.2,0.1l0,0l0.2,0.1h0l0.2,0.1h0l0.2,0.1l0,0l0.2,0.1l0,0l0.2,0.1l0,0l0.2,0.1l0,0l0.2,0.1l0,0l0.2,0.1l0,0l0.2,0.1
		l0,0l0.2,0.1l0,0l0.2,0.1l0,0l0.2,0.1l0,0l0.2,0.1l0,0l0.2,0.1l0,0l0.2,0.1l0,0l0.2,0.1l0,0l0.2,0.1l0,0l0.2,0.1l0,0l0.2,0.1l0,0
		l0.2,0.1l0,0l0.2,0.1l0,0l0.2,0.1l0,0l0.2,0.1l0,0l0.2,0.1l0,0l0.2,0.1l0,0l0.2,0.1l0,0l0.2,0.1l0,0l0.2,0.1l0,0l0.2,0.1l0,0
		l0.2,0.1l0,0l0.2,0.1l0,0l0.2,0.1l0,0l0.2,0.1l0,0l0.2,0.1l0,0l0.2,0.1l0,0l0.2,0.1l0,0l0.2,0.1l0,0l0.2,0.1l0,0l0.2,0.1l0,0
		l0.2,0.1l0,0l0.2,0.1l0,0l0.2,0.1l0,0l0.2,0.1l0,0l0.2,0.1l0,0l0.2,0.1l0,0l0.2,0.1l0,0l0.2,0.1l0,0l0.2,0.1l0,0l0.2,0.1l0,0
		l0.2,0.1l0,0l0.2,0.1l0,0l0.2,0.1l0,0l0.2,0.1h0l86.7,50.9l0.1,0.1l0,0l0.1,0.1l0,0l0.1,0.1l0,0l0.1,0.1l0,0l0.1,0.1l0,0l0.1,0.1
		l0,0l0.1,0.1l0,0l0.1,0.1l0,0l0.1,0.1l0,0l0.1,0.1l0,0l0.1,0.1l0,0l0.1,0.1l0,0l0.1,0.1l0,0l0.1,0.1l0,0l0.1,0.1l0,0l0.1,0.1l0,0
		l0.1,0.1l0,0l0.1,0.1l0,0l0.1,0.1l0,0l0.1,0.1l0,0l0.1,0.1l0,0l0.1,0.1l0,0l0.1,0.1l0,0l0.1,0.1l0,0l0.1,0.1l0,0l0.1,0.1l0,0
		l0.1,0.1l0,0l0.1,0.1l0,0l0.1,0.1l0,0l0.1,0.1l0,0l0.1,0.1l0,0l0.1,0.1l0,0l0.1,0.1l0,0l0.1,0.1l0,0l0.2,0.2l0,0l0.2,0.2l0,0
		l0.3,0.2l0,0l0.3,0.2l0,0l0.2,0.2l0,0l0.2,0.2l0,0l0.2,0.2l0,0l0.2,0.2l0,0l0.2,0.2l0,0l0.2,0.2l0,0l0.2,0.2l0,0l0.2,0.2l0,0
		l0.2,0.2l0,0l0.2,0.2l0,0l0.2,0.2l0,0l0.2,0.2l0,0l0.2,0.2l0,0l0.2,0.2l0,0l0.2,0.2l0,0l0.2,0.2l0,0l0.2,0.2l0,0l0.2,0.2l0,0
		l0.2,0.2l0,0l0.2,0.2l0,0l0.2,0.2l0,0l0.2,0.2l0,0l0.2,0.2l0,0l0.2,0.2l0,0l0.2,0.3l0,0l0.2,0.3l0,0l0.2,0.3l0,0l0.2,0.3l0,0
		l0.2,0.3l0,0l0.2,0.3l0,0l0.2,0.3l0,0l0.2,0.3l0,0l0.2,0.3l0,0l0.2,0.3l0,0l0.2,0.3l0,0l0.2,0.3l0,0l0.2,0.3l0,0l0.2,0.3l0,0
		l0.2,0.3l0,0l0.2,0.3l0,0l0.2,0.3l0,0l0.2,0.3l0,0l0.2,0.3l0,0l0.2,0.3l0,0l0.2,0.3l0,0l0.2,0.3l0,0l0.2,0.3l0,0l0.2,0.3l0,0
		l0.1,0.3l0,0l0.1,0.3l0,0l0.1,0.3l0,0l0.1,0.3l0,0l0.1,0.3l0,0l0.1,0.3l0,0l0.1,0.3l0,0l0.1,0.3l0,0l0.1,0.3l0,0l0.1,0.3l0,0
		l0.1,0.3l0,0l0.1,0.3l0,0l0.1,0.3l0,0l0.1,0.3l0,0l0.1,0.3l0,0l0.1,0.3l0,0l0.1,0.3l0,0l0.1,0.3l0,0l0.1,0.3l0,0l0.1,0.3l0,0
		l0.1,0.3l0,0l0.1,0.3l0,0l0.1,0.3l0,0l0.1,0.3l0,0l0.1,0.3l0,0l0.1,0.3l0,0l0.1,0.3l0,0l0.1,0.3l0,0l0.1,0.3l0,0l0.1,0.3l0,0
		l0.1,0.3l0,0l0.1,0.3l0,0l0.1,0.3l0,0l0.1,0.3l0,0l0.1,0.3l0,0l0.1,0.3l0,0l0.1,0.3l0,0l0.1,0.3l0,0l0.1,0.3l0,0l0.1,0.3l0,0l0,0.3
		l0,0l0,0.3v0l0,0.2v0l0,0.2v0l0,0.2v0l0,0.2v0l0,0.2l0,0l0,0.2v0l0,0.2l0,0l0,0.2l0,0l0,0.2v0l0,0.2l0,0l0,0.2l0,0l0,0.2v0l0,0.2v0
		l0,0.2v0l0,0.2v0l0,0.2v0l0,0.2v0l0,0.2v0l0,0.2v0l0,0.2v0l0,0.2v0l0,0.2v0l0,0.2v0l0,0.2v0l0,0.2v0l0,0.2v0l0,0.2v106.8l0,0.2v0.2
		l0,0.2v0l0,0.2v0l0,0.2v0l0,0.2v0l0,0.2v0l0,0.2l0,0l0,0.2v0l0,0.2v0l0,0.2v0l0,0.2v0l0,0.2v0l0,0.2v0l0,0.2v0l0,0.2v0l0,0.2v0
		l0,0.2v0l0,0.2l0,0l0,0.2l0,0l0,0.2v0l0,0.2l0,0l0,0.2v0l0,0.2v0l0,0.2v0l0,0.2l0,0l0,0.2l0,0l0,0.2l0,0l0,0.2v0l0,0.2v0l0,0.2l0,0
		l0,0.2l0,0l0,0.2v0l0,0.2v0l0,0.2l0,0l0,0.2l0,0l0,0.2v0l0,0.2v0l0,0.2v0l0,0.2v0l0,0.2l0,0l0,0.2l0,0l0,0.2l0,0l0,0.2v0l0,0.2v0
		l0,0.2v0l0,0.2v0l0,0.2l0,0l0,0.2v0l0,0.2v0l0,0.2l0,0l0,0.2l0,0l0,0.2l0,0l0,0.2l0,0l0,0.2l0,0l0,0.2l0,0l0,0.2l0,0l0,0.2v0l0,0.2
		l0,0l0,0.2v0l0,0.2l0,0l0,0.2l0,0l0,0.2l0,0l0,0.2l0,0l0,0.2l0,0l-0.1,0.2l0,0l0,0.2l0,0l0,0.2l0,0l0,0.2l0,0l-0.1,0.2l0,0
		l-0.1,0.2l0,0l-0.1,0.2l0,0l-0.1,0.2l0,0l-0.1,0.2l0,0l-0.1,0.2l0,0l-0.1,0.2l0,0l-0.1,0.2l0,0l-0.1,0.2l0,0l-0.1,0.2l0,0l-0.1,0.2
		l0,0l-0.1,0.2l0,0l-0.1,0.2l0,0l-0.1,0.2l0,0l-0.1,0.2l0,0l-0.1,0.2l0,0l-0.1,0.2l0,0l-0.1,0.2l0,0l-0.1,0.2l0,0l-0.1,0.2l0,0
		l-0.1,0.2l0,0L508,433l0,0l-0.1,0.2l0,0l-0.1,0.2l0,0l-0.1,0.2l0,0l-0.1,0.2l0,0l-0.1,0.2l0,0l-0.1,0.2l0,0l-0.1,0.2l0,0l-0.1,0.2
		l0,0l-0.1,0.2l0,0l-0.1,0.2l0,0l-0.1,0.2l0,0l-0.1,0.1l0,0l-0.1,0.2l0,0l-0.1,0.1l0,0l-0.1,0.2l0,0l-0.1,0.2l0,0l-0.1,0.2l0,0
		l-0.1,0.1l0,0l-0.1,0.2l0,0l-0.1,0.2l0,0l-0.1,0.2l0,0l-0.1,0.1l0,0l-0.1,0.2l0,0l-0.1,0.2l0,0l-0.1,0.1l0,0l-0.1,0.1l0,0l-0.1,0.1
		l0,0l-0.1,0.1l0,0l-0.1,0.1l0,0l-0.1,0.1l0,0l-0.1,0.1l0,0l-0.1,0.1l0,0l-0.1,0.1l0,0l-0.1,0.1l0,0l-0.1,0.1l0,0l-0.1,0.1l0,0
		l-0.1,0.1l0,0l-0.1,0.1l0,0l-0.1,0.1l0,0l-0.1,0.1l0,0l-0.1,0.1l0,0l-0.1,0.1l0,0l-0.1,0.1l0,0l-0.1,0.1l0,0l-0.1,0.1l0,0l-0.1,0.1
		l0,0l-0.1,0.1l0,0l-0.1,0.1l0,0l-0.1,0.1l0,0l-0.1,0.1l0,0l-0.1,0.1l0,0l-0.1,0.1l0,0l-0.1,0.1l0,0l-0.1,0.1l0,0l-0.1,0.1l0,0
		l-0.1,0.1l0,0l-0.1,0.1l0,0l-0.1,0.1l0,0l-0.1,0.1l0,0l-0.1,0.1l0,0l-0.1,0.1l0,0l-0.1,0.1l0,0l-0.1,0.1l0,0l-0.1,0.1l0,0l-0.1,0.1
		l0,0l-0.1,0.1l0,0l-0.1,0.1l0,0l-0.1,0.1l0,0l-0.1,0.1l0,0l-0.1,0.1l0,0l-0.1,0.1l0,0l-0.1,0.1l0,0l-0.1,0.1l0,0l-0.1,0.1l0,0
		l-0.1,0.1l0,0l-0.1,0.1l0,0l-0.1,0.1l0,0l-0.1,0.1l0,0l-0.1,0.1l0,0l-0.1,0.1l0,0l-0.1,0.1l0,0l-0.1,0.1l0,0l-0.1,0.1l0,0l-0.1,0.1
		l0,0l-0.1,0.1l0,0l-0.1,0.1l0,0l-0.1,0.1l0,0l-0.1,0.1l0,0l-0.1,0.1l0,0l-0.1,0.1l0,0l-0.1,0.1l0,0l-0.1,0.1l0,0l-0.1,0.1l0,0
		l-0.1,0.1l0,0l-0.1,0.1l0,0l-0.1,0.1l0,0l-0.1,0.1l0,0l-0.1,0.1l0,0l-0.1,0.1l0,0l-0.1,0.1l0,0l-0.1,0.1l0,0l-0.1,0.1l0,0l-0.1,0.1
		l0,0l-0.1,0.1l0,0l-0.1,0.1l0,0l-0.1,0.1l0,0l-0.1,0.1l0,0l-0.1,0.1l0,0l-0.1,0.1l0,0l-0.1,0.1l0,0l-0.1,0.1l0,0l-0.1,0.1l0,0
		l-0.1,0.1l0,0l-0.1,0.1l0,0l-0.1,0.1l0,0l-0.1,0.1l0,0l-0.1,0.1l0,0l-0.1,0.1l0,0l-0.1,0.1l0,0l-0.1,0.1l0,0l-0.1,0.1l0,0l-0.1,0.1
		l0,0l-0.1,0.1l0,0l-0.1,0.1l0,0l-0.1,0.1l0,0l-0.1,0.1l0,0l-0.1,0.1l0,0l-0.1,0.1l0,0l-0.1,0.1l0,0l-0.1,0.1l0,0l-0.1,0.1l0,0
		l-0.1,0.1l0,0l-0.1,0.1l0,0l-0.1,0.1l0,0l-0.1,0.1l0,0l-0.1,0.1l0,0l-0.1,0.1l0,0l-0.1,0.1l0,0l-0.1,0.1l0,0l-0.1,0.1l0,0l-0.1,0.1
		l0,0l-0.1,0.1l0,0l-0.1,0.1l0,0l-0.1,0.1l0,0l-0.1,0.1l0,0l-0.1,0.1l0,0l-0.1,0.1l0,0l-0.1,0.1l0,0l-0.1,0.1l0,0l-0.1,0.1l0,0
		l-0.1,0.1l0,0l-0.1,0.1l0,0l-0.2,0.1l0,0l-0.1,0.1l0,0l-0.1,0.1l0,0l-0.2,0.1l0,0l-0.2,0.1l0,0l-0.1,0.1l0,0l-0.2,0.1l0,0l-0.2,0.1
		l0,0l-0.1,0.1l0,0l-88.7,49.4h0L399,505l0,0l-0.1,0.1l0,0l-0.1,0.1l0,0l-0.1,0.1l0,0l-0.1,0.1l0,0l-0.1,0.1l0,0l-0.1,0.1l0,0
		l-0.1,0.1l0,0l-0.1,0.1l0,0l-0.1,0.1l0,0l-0.2,0.1l0,0l-0.1,0.1l0,0l-0.1,0.1l0,0l-0.1,0.1l0,0l-0.1,0.1l0,0l-0.2,0.1l0,0l-0.1,0.1
		l0,0l-0.2,0.1l0,0l-0.1,0.1l0,0l-0.1,0.1l0,0l-0.2,0.1l0,0l-0.2,0.1l0,0l-0.2,0.1l0,0l-0.2,0.1l0,0l-0.1,0.1l0,0l-0.2,0.1l0,0
		l-0.2,0.1l0,0l-0.2,0.1l0,0l-0.2,0.1l0,0l-0.2,0.1l0,0l-0.2,0.1l0,0l-0.1,0.1l0,0l-0.2,0.1l0,0l-0.2,0.1l0,0l-0.2,0.1l0,0l-0.2,0.1
		l0,0l-0.2,0.1l0,0l-0.2,0.1l0,0l-0.2,0.1l0,0l-0.2,0.1l0,0l-0.2,0.1l0,0l-0.2,0.1l0,0l-0.2,0.1l0,0l-0.2,0.1l-0.2,0.1l0,0l-0.2,0
		l0,0l-0.2,0l0,0l-0.2,0.1l0,0l-0.2,0l0,0l-0.2,0l0,0l-0.2,0l0,0l-0.2,0.1l0,0l-0.3,0.1l0,0l-0.3,0.1l0,0l-0.3,0.1l0,0L389,509l0,0
		l-0.3,0.1l0,0l-0.3,0.1l0,0l-0.3,0.1l0,0l-0.3,0.1l0,0l-0.3,0.1l0,0l-0.3,0.1l0,0l-0.3,0.1l0,0l-0.3,0.1l0,0l-0.3,0.1l0,0l-0.3,0.1
		l0,0l-0.3,0.1l0,0l-0.3,0.1l0,0l-0.3,0.1l0,0l-0.3,0l0,0l-0.3,0l0,0l-0.3,0l0,0l-0.3,0l0,0l-0.3,0l0,0l-0.3,0l0,0l-0.3,0l-0.3,0h0
		l-0.3,0l0,0l-0.3,0h0l-0.3,0h0l-0.3,0l0,0l-0.3,0h0l-0.3,0h0l-0.3,0h0l-0.3,0h0l-0.3,0h0l-0.3,0h-1.1l-0.3,0l-0.3,0h0l-0.3,0h0
		l-0.3,0l0,0l-0.3,0h0l-0.3,0l0,0l-0.3,0h0l-0.3,0l0,0l-0.3,0l0,0l-0.3,0l0,0l-0.3,0l0,0l-0.3,0h0l-0.3,0l0,0l-0.3,0h0l-0.3,0l0,0
		l-0.3,0l0,0l-0.3,0l0,0l-0.3,0l0,0l-0.3,0l0,0l-0.3-0.1h0l-0.3-0.1l0,0l-0.3-0.1l0,0l-0.3-0.1l0,0l-0.3-0.1l0,0l-0.3-0.1l0,0
		l-0.3-0.1l0,0l-0.3-0.1l0,0l-0.3-0.1l0,0l-0.3-0.1l0,0l-0.3-0.1l0,0l-0.3-0.1l0,0l-0.3-0.1l0,0l-0.3-0.1l0,0l-0.3-0.1l0,0l-0.3-0.1
		l0,0l-0.3-0.1l0,0l-0.3-0.1l0,0l-0.3-0.1l0,0l-0.2-0.1h0l-0.2,0l0,0l-0.2-0.1l0,0l-0.2-0.1l0,0l-0.2-0.1l0,0l-0.2-0.1l0,0l-0.2-0.1
		l0,0l-0.2-0.1l0,0l-0.2-0.1l0,0l-0.2-0.1l0,0l-0.2-0.1l0,0l-0.2-0.1l0,0l-0.2-0.1l0,0l-0.2-0.1l0,0l-0.2-0.1l0,0l-0.2-0.1l0,0
		l-0.2-0.1l0,0l-0.2-0.1l0,0l-0.2-0.1l0,0l-0.2-0.1l0,0l-0.2-0.1l0,0l-0.2-0.1l0,0l-0.2-0.1l0,0l-0.1-0.1l0,0l-0.2-0.1l0,0l-0.2-0.1
		l0,0l-0.2-0.1l0,0l-0.1-0.1l0,0l-0.2-0.1l0,0l-0.1-0.1l0,0l-0.1-0.1l0,0l-0.1-0.1l0,0l-0.2-0.1l0,0l-0.2-0.1l0,0l-0.1-0.1l0,0
		l-0.2-0.1l0,0l-0.1-0.1l0,0l-0.2-0.1l0,0l-0.1-0.1l0,0l-0.1-0.1l0,0l-0.1-0.1l0,0l-0.1-0.1l0,0l-0.1-0.1l0,0l-0.1-0.1l0,0l-0.1-0.1
		l0,0l-0.1-0.1l0,0l-0.1-0.1l0,0l-0.1-0.1l0,0l-0.1-0.1l0,0l-0.1-0.1l0,0l-0.1-0.1l0,0l-0.1-0.1l0,0l-80.2-46.8l0,0l-0.2-0.1l0,0
		l-0.2-0.1l0,0l-0.2-0.1l0,0l-0.2-0.1l0,0l-0.2-0.1l0,0l-0.2-0.1l0,0l-0.2-0.1l0,0l-0.2-0.1l0,0l-0.2-0.1l0,0l-0.2-0.1h0l-0.2-0.1
		l0,0l-0.2-0.1l0,0l-0.2-0.1l0,0l-0.2-0.1l0,0l-0.2-0.1l0,0l-0.2-0.1l0,0l-0.2-0.1l0,0l-0.2-0.1l0,0l-0.2-0.1l0,0l-0.2-0.1l0,0
		l-0.2-0.1l0,0l-0.2-0.1l0,0l-0.2-0.1l0,0l-0.2-0.1l0,0l-0.2-0.1l0,0l-0.2-0.1l0,0l-0.2-0.1l0,0l-0.2-0.1l0,0L269,454l0,0l-0.2-0.1
		l0,0l-0.2-0.1l0,0l-0.2-0.1l0,0l-0.2-0.1l0,0l-0.2-0.1l0,0l-0.2-0.1l0,0l-0.2-0.1l0,0l-0.2-0.1l0,0l-0.2-0.1l0,0l-0.2-0.1l0,0
		l-0.2-0.1l0,0l-0.1-0.1l0,0l-0.2-0.1l0,0l-0.2-0.1l0,0l-0.2-0.1l0,0l-0.1-0.1l0,0l-0.1-0.1l0,0l-0.1-0.1l0,0l-0.1-0.1l0,0l-0.1-0.1
		l0,0l-0.1-0.1l0,0l-0.1-0.1l0,0l-0.1-0.1l0,0l-0.1-0.1l0,0l-0.1-0.1l0,0l-0.1-0.1l0,0l-0.1-0.1l0,0l-0.1-0.1l0,0l-0.1-0.1l0,0
		l-0.1-0.1l0,0l-0.1-0.1l0,0l-0.1-0.1l0,0l-0.1-0.1l0,0l-0.1-0.1l0,0l-0.1-0.1l0,0l-0.1-0.1l0,0l-0.1-0.1l0,0l-0.1-0.1l0,0l-0.1-0.1
		l0,0l-0.1-0.1l0,0l-0.1-0.1l0,0l-0.1-0.1l0,0l-0.1-0.1l0,0l-0.1-0.1l0,0l-0.1-0.1l0,0l-0.1-0.1l0,0l-0.1-0.1l0,0l-0.1-0.1l0,0
		l-0.1-0.1l0,0l-0.1-0.1l0,0l-0.1-0.2l0,0l-0.1-0.1l0,0l-0.1-0.2l0,0l-0.1-0.1l0,0l-0.1-0.1l0,0l-0.1-0.2l0,0l-0.1-0.2l0,0l-0.1-0.1
		l0,0l-0.1-0.1l0,0l-0.1-0.1l0,0l-0.1-0.2l0,0l-0.1-0.2l0,0l-0.1-0.2l0,0l-0.1-0.2l0,0l-0.1-0.2l0,0l-0.1-0.2l0,0l-0.1-0.2l0,0
		l-0.1-0.2l0,0l-0.1-0.2l0,0l-0.1-0.2l0,0l-0.1-0.2l0,0l-0.1-0.2l0,0l-0.1-0.2l0,0l-0.1-0.2l0,0l-0.1-0.2l0,0l-0.1-0.2l0,0l-0.1-0.2
		l0,0l-0.1-0.2l0,0l-0.1-0.2l0,0l-0.1-0.2l0,0l-0.1-0.2l0,0l-0.1-0.2l0,0l-0.1-0.2l0,0l-0.1-0.2l0,0l-0.1-0.2l0,0l-0.1-0.2l0,0
		l-0.1-0.2l0,0l-0.1-0.2l0,0l-0.1-0.2l0,0l-0.1-0.2l0,0l-0.1-0.2l0,0l-0.1-0.2l0,0l-0.1-0.2l0,0l-0.1-0.2l0,0l-0.1-0.2l0,0l-0.1-0.2
		l0,0l-0.1-0.2l0,0l-0.1-0.2l0,0l-0.1-0.2l0,0l-0.1-0.2l0,0l-0.1-0.2l0,0l-0.1-0.2l0,0l-0.1-0.2l0,0l-0.1-0.2l0,0l-0.1-0.2l0,0
		l-0.1-0.2l0,0l-0.1-0.2l0,0l-0.1-0.2l0,0l-0.1-0.2l0,0l-0.1-0.2l0,0l-0.1-0.2l0,0l-0.1-0.2l0,0l-0.1-0.2l0,0l-0.1-0.2l0,0l-0.1-0.2
		v0l-0.1-0.2l0,0l-0.1-0.2l0,0l-0.1-0.2l0,0l-0.1-0.2l0,0l-0.1-0.2l0,0l-0.1-0.2l0,0l-0.1-0.2l0,0l-0.1-0.2l0,0l-0.1-0.2l0,0
		l-0.1-0.2l0,0l-0.1-0.2l0,0l-0.1-0.2l0,0l-0.1-0.2l0,0l-0.1-0.2l0,0l-0.1-0.2l0,0l-0.1-0.2l0,0l-0.1-0.2l0,0l-0.1-0.2l0,0l-0.1-0.2
		l0,0l-0.1-0.2l0,0l-0.1-0.2l0,0l-0.1-0.2l0,0l-0.1-0.2l0,0l-0.1-0.2l0,0l-0.1-0.2l0,0l-0.1-0.2l0,0l-0.1-0.2l0,0l-0.1-0.2l0,0
		l-0.1-0.2l0,0l-0.1-0.2l0,0l-0.1-0.2l0,0l-0.1-0.2l0,0l-0.1-0.2l0,0l-0.1-0.2l0,0l-0.1-0.2l0,0l-0.1-0.2l0,0l-0.1-0.2l0,0l-0.1-0.2
		l0,0l-0.1-0.2l0,0l-0.1-0.2l0,0l-0.1-0.2l0,0l-0.1-0.2l0,0l-0.1-0.2l0,0l-0.1-0.2l0,0l-0.1-0.2l0,0l-0.1-0.2l0,0l-0.1-0.2l0,0
		l0-0.2l0,0l0-0.2v0l-0.1-0.2v0l0-0.2l0,0l0-0.2l0,0l0-0.2h0l0-0.2l0,0l0-0.2l0,0l0-0.2l0,0l0-0.2l0,0l0-0.2l0,0l0-0.2l0,0l0-0.2
		l0,0l0-0.2l0,0l0-0.2l0,0l0-0.2l0,0l0-0.2l0-0.2v0l0-0.2v0l0-0.2l0,0l0-0.2v0l0-0.2l0,0l0-0.2l0,0l0-0.2l0,0l0-0.2v0l0-0.2v0l0-0.2
		l0,0l0-0.2v0l0-0.2v0l0-0.2v0l0-0.2v0l0-0.2v0l0-0.2v0l0-0.2v0l0-0.2l0,0l0-0.2v0l0-0.2l0,0l0-0.2v0l0-0.2l0,0l0-0.2v0l0-0.2l0,0
		l0-0.2l0-0.2v0l0-0.2l0,0l0-0.2v0l0-0.2l0,0l0-0.2v0l0-0.2v0l0-0.2l0-0.2v0l0-0.2v0l0-0.2v-0.2l0-0.2v0l0-0.2v0l0-0.2l0,0l0-0.2
		v-0.2l0-0.2v0l0-0.2V316l0-0.2v-0.2l0-0.2v-0.7l0-0.2v0l0-0.2v0l0-0.2v0l0-0.2v0l0-0.2v0l0-0.2v0l0-0.2v0l0-0.2v0l0-0.2v0l0-0.2v0
		l0-0.2v0l0-0.2v0l0-0.2v0l0-0.2v0l0-0.2v0l0-0.2l0,0l0-0.2v0l0-0.2v0l0-0.2l0,0l0-0.2v0l0-0.2v0l0-0.2v0l0-0.2l0,0l0-0.2v0l0-0.2v0
		l0-0.2v0l0-0.2l0,0l0-0.2v0l0-0.2v0l0-0.2l0,0l0-0.2l0,0l0-0.2l0,0l0-0.2v0l0-0.2v0l0-0.2l0,0l0-0.2v0l0.1-0.2l0,0l0-0.2v0l0-0.2v0
		l0-0.2v0l0-0.2l0,0l0-0.2l0,0l0-0.2l0,0l0-0.2l0,0l0-0.2v0l0-0.2v0l0-0.2l0,0l0-0.2l0,0l0-0.2v0l0-0.2l0,0l0-0.2l0,0l0-0.2v0l0-0.2
		l0,0l0-0.2v0l0-0.2l0,0l0-0.2v0l0-0.2l0,0l0.1-0.2v0l0.1-0.2v0l0.1-0.2l0,0l0.1-0.2v0l0.1-0.2l0,0l0.1-0.2l0,0l0.1-0.2l0,0l0.1-0.2
		l0,0l0.1-0.2l0,0l0.1-0.2l0,0l0.1-0.2l0,0l0.1-0.2l0,0l0.1-0.2l0,0l0.1-0.2l0,0l0.1-0.2v0l0.1-0.2v0l0.1-0.2l0,0l0.1-0.2l0,0
		l0.1-0.2l0,0l0.1-0.2l0,0l0.1-0.2l0,0l0.1-0.2l0,0l0.1-0.2l0,0l0.1-0.2l0,0l0.1-0.2l0,0l0.1-0.2v0l0.1-0.2l0,0l0.1-0.2l0,0l0.1-0.2
		l0,0l0.1-0.2l0,0l0.1-0.2l0,0l0.1-0.2l0,0l0.1-0.2l0,0l0.1-0.2l0,0l0.1-0.2l0,0l0.1-0.2l0,0l0.1-0.2l0,0l0.1-0.2l0,0l0.1-0.2l0,0
		l0.1-0.2l0,0l0.1-0.2l0,0l0.1-0.2l0,0l0.1-0.2l0,0l0.1-0.2l0,0l0.1-0.2l0,0l0.1-0.2l0,0l0.1-0.2l0,0l0.1-0.2l0,0l0.1-0.2l0,0
		l0.1-0.2l0,0l0.1-0.2l0,0l0.1-0.2l0,0l0.1-0.2l0,0l0.1-0.2l0,0l0.1-0.2l0,0l0.1-0.2l0,0l0.1-0.2l0,0l0.1-0.2l0,0l0.1-0.2l0,0
		l0.1-0.2l0,0l0.1-0.2l0,0l0.1-0.2l0,0l0.1-0.2l0,0l0.1-0.2l0,0l0.1-0.2l0,0l0.1-0.2l0,0l0.1-0.2l0,0l0.1-0.2l0,0l0.1-0.2l0,0
		l0.1-0.2l0,0l0.1-0.2l0,0l0.1-0.2l0,0l0.1-0.2l0,0l0.1-0.2l0,0l0.1-0.2l0,0l0.1-0.2l0,0l0.1-0.2l0,0l0.1-0.2l0,0l0.1-0.2l0,0
		l0.1-0.2l0,0l0.1-0.2l0,0l0.1-0.2l0,0l0.1-0.2l0,0l0.1-0.2l0,0l0.1-0.2l0,0l0.1-0.2l0,0l0.1-0.2l0,0l0.1-0.2l0,0l0.1-0.2l0,0
		l0.1-0.2l0,0l0.1-0.2l0,0l0.1-0.2l0,0l0.1-0.2l0,0l0.1-0.2l0,0l0.1-0.2l0,0l0.1-0.2l0,0l0.1-0.2l0,0l0.1-0.2l0,0l0.1-0.2l0,0
		l0.1-0.2l0,0l0.1-0.2l0,0l0.1-0.2l0,0l0.1-0.2l0,0l0.1-0.2l0,0l0.1-0.2l0,0l0.1-0.2l0,0l0.1-0.2l0,0l0.1-0.2l0,0l0.1-0.2l0,0
		l0.1-0.2l0,0l0.1-0.1l0,0l0.1-0.2l0,0l0.1-0.2l0,0l0.1-0.1l0,0l0.1-0.2l0,0l0.1-0.1l0,0l0.1-0.2l0,0l0.1-0.2l0,0l0.1-0.1l0,0
		l0.1-0.1l0,0l0.1-0.1l0,0l0.1-0.1l0,0l0.1-0.1l0,0l0.1-0.1l0,0l0.1-0.1l0,0l0.1-0.1l0,0l0.1-0.1l0,0l0.1-0.1l0,0l0.1-0.1l0,0
		l0.1-0.1l0,0l0.1-0.1l0,0l0.1-0.1l0,0l0.1-0.1l0,0l0.1-0.1l0,0l0.1-0.1l0,0l0.1-0.1l0,0l0.1-0.1l0,0l0.1-0.1l0,0l0.1-0.1l0,0
		l0.1-0.1l0,0l0.1-0.1l0,0l0.1-0.1l0,0l0.1-0.1l0,0l0.1-0.1l0,0l0.1-0.1l0,0l0.1-0.1l0,0l0.1-0.1l0,0l0.1-0.1l0,0l0.1-0.1l0,0
		l0.1-0.1l0,0l0.1-0.1l0,0l0.2-0.1l0,0l0.2-0.1l0,0l0.2-0.1l0,0l0.2-0.1l0,0l0.2-0.1l0,0l0.1-0.1l0,0l0.2-0.1l0,0l0.2-0.1l0,0
		l0.2-0.1l0,0l0.2-0.1l0,0l0.2-0.1l0,0l0.2-0.1l0,0l0.2-0.1l0,0l0.2-0.1l0,0l0.2-0.1l0,0l0.2-0.1l0,0l0.2-0.1l0,0l0.2-0.1l0,0
		l0.2-0.1l0,0l0.2-0.1l0,0l0.2-0.1l0,0l0.2-0.1l0,0l0.2-0.1l0,0l0.2-0.1l0,0l0.2-0.1l0,0l0.2-0.1l0,0l0.2-0.1l0,0l0.2-0.1l0,0
		l0.2-0.1l0,0l0.2-0.1l0,0l0.2-0.1l0,0l0.2-0.1l0,0l0.2-0.1l0,0l0.2-0.1l0,0l0.2-0.1l0,0l0.2-0.1l0,0l0.2-0.1l0,0l0.2-0.1l0,0
		l0.2-0.1l0,0l0.2-0.1l0,0l0.2-0.1l0,0l0.2-0.1h0l76.9-47.4l0,0l0.2-0.1l0,0l0.2-0.1l0,0l0.2-0.1l0,0l0.2-0.1l0,0l0.2-0.1l0,0
		l0.2-0.1l0,0l0.2-0.1l0,0l0.2-0.1l0,0l0.2-0.1l0,0l0.2-0.1l0,0l0.2-0.1l0,0l0.2-0.1l0,0l0.2-0.1l0,0l0.2-0.1l0,0l0.2-0.1l0,0
		l0.2-0.1l0,0l0.2-0.1l0,0l0.2-0.1l0,0l0.2-0.1l0,0l0.2-0.1l0,0l0.2-0.1l0,0l0.2-0.1l0,0l0.2-0.1l0,0l0.2-0.1l0,0l0.2-0.1l0,0
		l0.2-0.1l0,0l0.2-0.1l0,0l0.2-0.1l0,0l0.2-0.1l0,0l0.2-0.1l0,0l0.2-0.1l0,0l0.2-0.1l0,0l0.2-0.1l0,0l0.2-0.1l0,0l0.2-0.1l0,0
		l0.2-0.1l0,0l0.2-0.1l0,0l0.2-0.1l0,0l0.2-0.1l0,0l0.2-0.1l0,0l0.2-0.1l0,0l0.2-0.1l0,0l0.2-0.1l0,0l0.2-0.1l0,0l0.2-0.1l0,0
		l0.2-0.1l0,0l0.2-0.1l0,0l0.2-0.1l0,0l0.2-0.1l0,0l0.2-0.1l0,0l0.2-0.1l0,0l0.2-0.1l0,0l0.2-0.1l0,0l0.2-0.1l0,0l0.2-0.1l0,0
		l0.2-0.1l0,0l0.2-0.1l0,0l0.2-0.1l0,0l0.2-0.1l0,0l0.2-0.1h0l0.2-0.1l0,0l0.2-0.1l0,0l0.2-0.1l0,0l0.2-0.1l0,0l0.2-0.1l0,0l0.2-0.1
		l0,0l0.2,0l0,0l0.2,0l0,0l0.2-0.1l0,0l0.2,0h0l0.2-0.1h0l0.2,0l0,0l0.2,0l0,0l0.2,0h0l0.2,0h0l0.2,0l0,0l0.2,0l0,0l0.2,0l0,0l0.2,0
		h0l0.2,0l0,0l0.2,0h0l0.2,0l0,0l0.2,0h0l0.2,0l0,0l0.2,0l0,0l0.2,0l0,0l0.2,0h0l0.2,0l0,0l0.2,0l0,0l0.2,0h0l0.2,0l0,0l0.2,0l0,0
		l0.2,0h0l0.2,0h0l0.2,0l0,0l0.2,0h0l0.2,0h0l0.2,0h0l0.2,0h0l0.2,0h0l0.2,0l0,0l0.2,0l0,0l0.2,0h0l0.2,0h0l0.2,0h0l0.2,0h0l0.2,0h0
		l0.2,0h0l0.2,0l0,0l0.2,0l0,0l0.2,0h0l0.2,0h0l0.2,0h0l0.2,0l0,0l0.2,0l0,0l0.2,0h0l0.2,0h0l0.2,0h0l0.2,0h0l0.2,0h0l0.2,0l0,0
		l0.2,0h0l0.2,0h0l0.2,0h0l0.2,0h0l0.2,0h0l0.2,0h0.2l0.2,0L377.5,214.5L377.5,214.5z M377.3,235.2h-0.1l-0.1,0h-0.1l-0.1,0l-0.1,0
		l-0.1,0l-0.1,0l-0.1,0l-0.1,0l-0.1,0l-0.1,0l-0.1,0l-0.1,0l-0.1,0l-0.1,0l-0.1,0l-0.1,0l-0.1,0l-0.1,0l-0.1,0l-0.1,0l-0.1,0l-0.1,0
		l-0.1,0l-0.1,0l-0.1,0l-0.1,0l-0.1,0l-0.1,0l-0.1,0l-0.1,0l-0.1,0l-0.1,0l-0.1,0l-0.1,0l-0.1,0l-0.1,0l-0.1,0l-0.1,0l-0.1,0l-0.1,0
		l-0.1,0l-0.1,0l-0.1,0l-0.1,0l-0.1,0l-0.1,0l-0.1,0l-0.1,0l-0.1,0l-0.1,0l-0.1,0l-0.1,0l-0.1,0l-0.1,0l-0.1,0l-0.1,0l-0.1,0l-0.1,0
		l-0.1,0l-0.1,0l-0.1,0l-0.1,0l-0.1,0l-0.1,0l-0.1,0l-0.1,0l-0.1,0l-0.1,0l-0.1,0l-0.1,0l-0.1,0l-0.1,0l-0.1,0l-0.1,0l-0.1,0l-0.1,0
		l-0.1,0l-0.1,0l-0.1,0l-0.1,0l-0.1,0l-0.1,0l-0.1,0l-0.1,0l-0.1,0l-0.1,0l-0.1,0l-0.1,0.1l-0.1,0l-0.1,0l-0.1,0l-0.1,0.1l-0.1,0
		l-0.1,0.1l-0.1,0.1l-0.1,0.1l-0.1,0.1l-0.1,0.1l-0.1,0.1l-0.1,0.1l-0.1,0.1l-0.1,0.1l-0.1,0.1l-0.1,0.1l-0.1,0.1l-0.1,0.1l-0.1,0.1
		l-0.1,0.1l-0.1,0.1l-0.1,0.1l-0.1,0.1l-0.1,0.1l-0.1,0.1l-0.1,0.1l-0.1,0.1l-0.1,0.1l-0.1,0.1l-0.1,0.1l-0.1,0.1l-0.1,0.1l-0.1,0.1
		l-0.1,0.1l-0.1,0.1l-0.1,0.1l-0.1,0.1l-0.1,0.1l-0.1,0.1l-0.1,0.1l-0.1,0.1l-76.8,47.4l-0.1,0.1l-0.1,0.1l-0.1,0.1l-0.1,0.1
		l-0.1,0.1l-0.1,0.1l-0.1,0.1l-0.1,0.1l-0.1,0.1l-0.1,0.1l-0.1,0.1l-0.1,0.1l-0.1,0.1l-0.1,0.1l-0.1,0.1l-0.1,0.1l-0.1,0.1l-0.1,0.1
		l-0.1,0.1l-0.1,0.1l-0.1,0.1l-0.1,0.1l-0.1,0.1L282,289l-0.1,0.1l-0.1,0.1l-0.1,0.1l-0.1,0.1l-0.1,0.1l-0.1,0.1l-0.1,0.1l-0.1,0.1
		l-0.1,0.1l-0.1,0.1l-0.1,0.1l-0.1,0.1l-0.1,0.1l-0.1,0.1l-0.1,0.1l-0.1,0.1l-0.1,0.1l-0.1,0.1l-0.1,0.1l-0.1,0.1l-0.1,0.1l-0.1,0.1
		l-0.1,0.1l-0.1,0.1l-0.1,0.1l-0.1,0.1l-0.1,0.1l-0.1,0.1l-0.1,0.1l-0.1,0.1l-0.1,0.1l-0.1,0.1l-0.1,0.1l-0.1,0.1l-0.1,0.1l-0.1,0.1
		l-0.1,0.1l-0.1,0.1l-0.1,0.1l-0.1,0.1l-0.1,0.1l-0.1,0.1l-0.1,0.1l-0.1,0.1l-0.1,0.1l-0.1,0.1l-0.1,0.1l-0.1,0.1l-0.1,0.1l-0.1,0.1
		l-0.1,0.1l-0.1,0.1l-0.1,0.1l-0.1,0.1l-0.1,0.1l-0.1,0.1l-0.1,0.1l-0.1,0.1l-0.1,0.1l-0.1,0.1l-0.1,0.1l-0.1,0.1l-0.1,0.1l-0.1,0.1
		l-0.1,0.1l-0.1,0.1l-0.1,0.1l-0.1,0.1l-0.1,0.1l-0.1,0.1l-0.1,0.1l-0.1,0.1l-0.1,0.1l-0.1,0.1l-0.1,0.1l-0.1,0.1l-0.1,0.1l-0.1,0.1
		l-0.1,0.1l-0.1,0.1l-0.1,0.1l-0.1,0.1l-0.1,0.1l-0.1,0.1l-0.1,0.1l-0.1,0.1l-0.1,0.1l-0.1,0.1l-0.1,0.1l-0.1,0.1l-0.1,0.1l-0.1,0.1
		l-0.1,0.1l-0.1,0.1l-0.1,0.1l-0.1,0.1l-0.1,0.1l-0.1,0.1l-0.1,0.1l-0.1,0.1l-0.1,0.1l-0.1,0.1l-0.1,0.1l-0.1,0.1l-0.1,0.1l-0.1,0.1
		l-0.1,0.1l-0.1,0.1l-0.1,0.1l-0.1,0.1l-0.1,0.1l-0.1,0.1l-0.1,0.1l-0.1,0.1l-0.1,0.1l-0.1,0.1l-0.1,0.1l-0.1,0.1l-0.1,0.1l-0.1,0.1
		l-0.1,0.1l-0.1,0.1l-0.1,0.1l-0.1,0.1l-0.1,0.1l-0.1,0.1l-0.1,0.1l-0.1,0.1l-0.1,0.1l-0.1,0.1l-0.1,0.1l0,0.1l-0.1,0.1l-0.1,0.1
		l-0.1,0.1l-0.1,0.1l-0.1,0.1l0,0.1l-0.1,0.1l-0.1,0.1l0,0.1l0,0.1l0,0.1l0,0.1l0,0.1l0,0.1l0,0.1l0,0.1l0,0.1l0,0.1l0,0.1l0,0.1
		l0,0.1l0,0.1l0,0.1l0,0.1l0,0.1l0,0.1l0,0.1l0,0.1l0,0.1l0,0.1l0,0.1l0,0.1l0,0.1l0,0.1l0,0.1l0,0.1l0,0.1l0,0.1l0,0.1l0,0.1l0,0.1
		l0,0.1l0,0.1l0,0.1l0,0.1l0,0.1l0,0.1l0,0.1l0,0.1l0,0.1l0,0.1l0,0.1l0,0.1l0,0.1l0,0.1l0,0.1l0,0.1l0,0.1l0,0.1l0,0.1l0,0.1l0,0.1
		l0,0.1l0,0.1l0,0.1l0,0.1l0,0.1l0,0.1l0,0.1l0,0.1l0,0.1l0,0.1l0,0.1l0,0.1l0,0.1l0,0.1l0,0.1l0,0.1l0,0.1l0,0.1l0,0.1l0,0.1l0,0.1
		l0,0.1l0,0.1l0,0.1l0,0.1l0,0.1l0,0.1l0,0.1v0.1l0,0.1l0,0.1v0.1l0,0.1v97l0,0.1v0.4l0,0.1l0,0.1l0,0.1l0,0.1l0,0.1l0,0.1l0,0.1
		l0,0.1l0,0.1l0,0.1l0,0.1l0,0.1l0,0.1l0,0.1l0,0.1l0,0.1l0,0.1l0,0.1l0,0.1l0,0.1l0,0.1l0,0.1l0,0.1l0,0.1l0,0.1l0,0.1l0,0.1l0,0.1
		l0,0.1l0,0.1l0,0.1l0,0.1l0,0.1l0,0.1l0,0.1l0,0.1l0,0.1l0,0.1l0,0.1l0,0.1l0,0.1l0,0.1l0,0.1l0,0.1l0,0.1l0,0.1l0,0.1l0,0.1l0,0.1
		l0,0.1l0,0.1l0,0.1l0,0.1l0,0.1l0,0.1l0,0.1l0,0.1l0,0.1l0,0.1l0,0.1l0,0.1l0,0.1l0,0.1l0,0.1l0,0.1l0,0.1l0,0.1l0,0.1l0,0.1l0,0.1
		l0,0.1l0,0.1l0,0.1l0,0.1l0,0.1l0,0.1l0,0.1l0,0.1l0,0.1l0,0.1l0,0.1l0,0.1l0,0.1l0,0.1l0.1,0.1l0.1,0.1l0,0.1l0,0.1l0,0.1l0,0.1
		l0,0.1l0.1,0.1l0.1,0.1l0.1,0.1l0.1,0.1l0.1,0.1l0.1,0.1l0.1,0.1l0.1,0.1l0.1,0.1l0.1,0.1l0.1,0.1l0.1,0.1l0.1,0.1l0.1,0.1l0.1,0.1
		l0.1,0.1l0.1,0.1l0.1,0.1l0.1,0.1l0.1,0.1l0.1,0.1l0.1,0.1l0.1,0.1l0.1,0.1l0.1,0.1l0.1,0.1l0.1,0.1l0.1,0.1l0.1,0.1l0.1,0.1
		l0.1,0.1l0.1,0.1l0.1,0.1l0.1,0.1l0.1,0.1l0.1,0.1l0.1,0.1l0.1,0.1l0.1,0.1l0.1,0.1l0.1,0.1l0.1,0.1l0.1,0.1l0.1,0.1l0.1,0.1
		l0.1,0.1l0.1,0.1l0.1,0.1l0.1,0.1l0.1,0.1l0.1,0.1l0.1,0.1l0.1,0.1l0.1,0.1l0.1,0.1l0.1,0.1l0.1,0.1l0.1,0.1l0.1,0.1l0.1,0.1
		l0.1,0.1l0.1,0.1l0.1,0.1l0.1,0.1l0.1,0.1l0.1,0.1l0.1,0.1l0.1,0.1l0.1,0.1l0.1,0.1l0.1,0.1l0.1,0.1l0.1,0.1l0.1,0.1l0.1,0.1
		l0.1,0.1l0.1,0.1l0.1,0.1l0.1,0.1l0.1,0.1l0.1,0.1l0.1,0.1l0.1,0.1l0.1,0.1l0.1,0.1l0.1,0.1l0.1,0.1l0.1,0.1l0.1,0.1l0.1,0.1
		l0.1,0.1l0.1,0.1l0.1,0.1l0.1,0.1l0.1,0.1l0.1,0.1l0.1,0.1l0.1,0.1l0.1,0.1l0.1,0.1l0.1,0.1l0.1,0.1l0.1,0.1l0.1,0.1l0.1,0.1
		l0.1,0.1l0.1,0.1l0.1,0.1l0.1,0.1l0.1,0.1l0.1,0.1l0.1,0.1l0.1,0.1l0.1,0.1l0.1,0.1l0.1,0.1l0.1,0.1l0.1,0.1l0.1,0.1l0.1,0.1
		l0.1,0.1l0.1,0.1l0.1,0.1l0.1,0.1l0.1,0.1l0.1,0.1l0.1,0.1l0.1,0.1l0.1,0.1l0.1,0.1l0.1,0.1l0.1,0.1l0.1,0.1l0.1,0.1l0.1,0.1
		l0.1,0.1l0.1,0.1l0.1,0.1l0.1,0.1l0.1,0.1l0.1,0.1l0.1,0.1l0.1,0.1l0.1,0.1l0.1,0.1l0.1,0.1l0.1,0.1l0.1,0.1l0.1,0.1l0.1,0.1
		l0.1,0.1l0.1,0.1l0.1,0.1l0.1,0.1l0.1,0.1l0.1,0.1l0.1,0.1l80.1,46.8l0.1,0.1l0.1,0l0.1,0l0.1,0l0.1,0l0.1,0.1l0.1,0l0.1,0l0.1,0
		l0.1,0.1l0.1,0l0.1,0l0.1,0l0.1,0l0.1,0l0.1,0l0.1,0l0.1,0l0.1,0l0.1,0l0.1,0l0.1,0l0.1,0l0.1,0l0.1,0l0.1,0l0.1,0l0.1,0l0.1,0
		l0.1,0l0.1,0l0.1,0l0.1,0l0.1,0l0.1,0l0.1,0l0.1,0l0.1,0l0.1,0l0.1,0l0.1,0l0.1,0l0.1,0l0.1,0l0.1,0l0.1,0l0.1,0l0.1,0l0.1,0l0.1,0
		l0.1,0l0.1,0l0.2,0.1l0.2,0.1l0.2,0.1l0.2,0.1l0.2,0.1l0.2,0.1l0.2,0.1l0.2,0.1l0.2,0.1l0.2,0l0.2,0l0.2,0l0.2,0l0.2,0l0.2,0l0.2,0
		l0.2,0l0.2,0l0.2,0l0.2,0l0.2,0l0.2,0l0.2,0l0.2,0l0.2,0l0.2,0l0.2,0l0.2,0l0.2,0l0.2,0l0.2,0l0.2,0l0.2,0l0.2,0l0.2,0l0.2,0h1
		l0.2,0h0.2l0.2,0l0.2,0l0.2,0l0.2,0l0.2,0l0.2,0l0.2,0l0.2,0l0.2,0l0.2,0l0.2,0l0.2,0l0.2,0l0.2,0l0.2,0l0.2,0l0.2,0l0.2,0l0.2,0
		l0.2,0l0.2,0l0.2,0l0.2,0l0.2,0l0.2,0l0.2,0l0.2,0l0.2,0l0.2-0.1l0.2-0.1l0.2-0.1l0.2-0.1l0.2-0.1l0.1,0l0.1,0l0.1,0l0.1,0l0.1,0
		l0.1,0l0.1,0l0.1,0l0.1,0l0.1,0l0.1,0l0.1,0l0.1,0l0.1,0l0.1,0l0.1,0l0.1,0l0.1,0l0.1,0l0.1,0l0.1,0l0.1,0l0.1,0l0.1,0l0.1,0l0.1,0
		l0.1,0l0.1,0l0.1,0l0.1,0l0.1,0l0.1,0l0.1,0l0.1,0l0.1,0l0.1,0l0.1,0l0.1,0l0.1,0l0.1,0l0.1,0l0.1,0l0.1,0l0.1,0l0.1,0l0.1,0l0.1,0
		l0.1,0l0.1,0l0.1,0l0.1,0l0.1-0.1l88.7-49.5l0.1-0.1l0.1-0.1l0.1-0.1l0.1-0.1l0.1-0.1l0.1-0.1l0.1-0.1l0.1-0.1l0.1-0.1l0.1-0.1
		l0.1-0.1l0.1-0.1l0.1-0.1l0.1-0.1l0.1-0.1l0.1-0.1l0.1-0.1l0.1-0.1l0.1-0.1l0.1-0.1l0.1-0.1l0.1-0.1l0.1-0.1l0.1-0.1l0.1-0.1
		l0.1-0.1l0.1-0.1l0.1-0.1l0.1-0.1l0.1-0.1l0.1-0.1l0.1-0.1l0.1-0.1l0.1-0.1l0.1-0.1l0.1-0.1l0.1-0.1l0.1-0.1l0.1-0.1l0.1-0.1
		l0.1-0.1l0.1-0.1l0.1-0.1l0.1-0.1l0.1-0.1l0.1-0.1l0.1-0.1l0.1-0.1l0.1-0.1l0.1-0.1l0.1-0.1l0.1-0.1l0.1-0.1l0.1-0.1l0.1-0.1
		l0.1-0.1l0.1-0.1l0.1-0.1l0.1-0.1l0.1-0.1l0.1-0.1l0.1-0.1l0.1-0.1l0.1-0.1l0.1-0.1l0.1-0.1l0.1-0.1l0.1-0.1l0.1-0.1l0.1-0.1
		l0.1-0.1l0.1-0.1l0.1-0.1l0.1-0.1l0.1-0.1l0.1-0.1l0.1-0.1l0.1-0.1l0.1-0.1l0.1-0.1l0.1-0.1l0.1-0.1l0.1-0.1l0.1-0.1l0.1-0.1
		l0.1-0.1l0.1-0.1l0.1-0.1l0.1-0.1l0.1-0.1l0.1-0.1l0.1-0.1l0.1-0.1l0.1-0.1l0.1-0.1l0.1-0.1l0.1-0.1l0.1-0.1l0.1-0.1l0.1-0.1
		l0.1-0.1l0.1-0.1l0.1-0.1l0.1-0.1l0.1-0.1l0.1-0.1l0.1-0.1l0.1-0.1l0.1-0.1l0.1-0.1l0.1-0.1l0.1-0.1l0.1-0.1l0.1-0.1l0.1-0.1
		l0.1-0.1l0.1-0.1l0.1-0.1l0.1-0.1l0.1-0.1l0.1-0.1l0.1-0.1l0.1-0.1l0.1-0.1l0.1-0.1l0.1-0.1l0.1-0.1l0.1-0.1l0.1-0.1l0.1-0.1
		l0.1-0.1l0-0.1l0-0.1l0.1-0.1l0.1-0.1l0-0.1l0.1-0.1l0.1-0.1l0-0.1l0-0.1l0-0.1l0-0.1l0.1-0.1l0.1-0.1l0-0.1l0-0.1l0-0.1l0-0.1
		l0-0.1l0-0.1l0-0.1l0-0.1l0-0.1l0-0.1l0-0.1l0-0.1l0-0.1l0-0.1l0-0.1l0-0.1l0-0.1l0-0.1l0-0.1l0-0.1l0-0.1l0-0.1l0-0.1l0-0.1l0-0.1
		l0-0.1l0-0.1l0-0.1l0-0.1l0-0.1l0-0.1l0-0.1l0-0.1l0-0.1l0-0.1l0-0.1l0-0.1l0-0.1l0-0.1l0-0.1l0-0.1l0-0.1l0-0.1l0-0.1l0-0.1l0-0.1
		l0-0.1l0-0.1l0-0.1l0-0.1l0-0.1l0-0.1l0-0.1l0-0.1l0-0.1l0-0.1l0-0.1l0-0.1l0-0.1l0-0.1l0-0.1l0-0.1l0-0.1l0-0.1l0-0.1l0-0.1l0-0.1
		l0-0.1l0-0.1l0-0.1l0-0.1l0-0.1l0-0.1l0-0.1l0-0.1l0-0.1l0-0.1l0-0.1l0-0.1l0-0.1l0-0.1l0-0.1l0-0.1l0-0.1l0-0.1l0-0.1l0-0.1l0-0.1
		l0-0.1l0-0.1l0-0.1l0-0.1l0-0.1l0-0.1l0-0.1l0-0.1l0-0.1l0-0.1l0-0.1l0-0.1l0-0.1l0-0.1l0-0.1v-0.2l0-0.1V310.3l0-0.1l0-0.1V310
		l0-0.1v-0.1l0-0.1v-0.1l0-0.1l0-0.1l0-0.1l0-0.1l0-0.1l0-0.1l0-0.1l0-0.1l0-0.1l0-0.1l0-0.1l0-0.1l0-0.1l0-0.1l0-0.1l0-0.1l0-0.1
		l0-0.1l0-0.1l0-0.1l0-0.1l0-0.2l0-0.2l0-0.2l0-0.2l0-0.2l0-0.2l0-0.2l0-0.2l0-0.2l0-0.2l0-0.2l0-0.2l0-0.2l0-0.2l0-0.2l-0.1-0.2
		l-0.1-0.2l-0.1-0.2l-0.1-0.2l-0.1-0.2l-0.1-0.2l-0.1-0.2l-0.1-0.2l-0.1-0.2l-0.1-0.2l-0.1-0.2l-0.1-0.2l-0.1-0.2l-0.1-0.2l-0.1-0.2
		l-0.1-0.2l-0.1-0.2l-0.1-0.2l-0.1-0.2l-0.1-0.2l-0.1-0.2l-0.1-0.2l-0.1-0.2l-0.1-0.2l-0.1-0.2l-0.1-0.2l-0.1-0.2l-0.1-0.2l-0.1-0.2
		l-0.1-0.2l-0.1-0.2l-0.1-0.2l-0.1-0.2l-0.1-0.2l-0.1-0.2l-0.1-0.2l-0.1-0.2l-0.1-0.2l-0.1-0.2l-0.1-0.2l-0.1-0.2l-0.1-0.2l-0.1-0.2
		l-0.1-0.2l-0.1-0.2l-0.1-0.2l-0.1-0.2l-0.1-0.2l-0.1-0.2l-0.1-0.2l-0.1-0.2l-0.1-0.2l-0.1-0.2l-0.1-0.2l-0.1-0.1l-0.1-0.1l-0.1-0.1
		l-0.1-0.1l-0.1-0.1l-0.1-0.1l-0.1-0.1l-0.1-0.1l-0.1-0.1l-0.1-0.1l-0.1-0.1l-0.1-0.1l-0.1-0.1l-0.1-0.1l-0.1-0.1l-0.1-0.1l-0.1-0.1
		l-0.1-0.1l-0.1-0.1l-0.1-0.1l-0.2-0.1l-0.2-0.1l-0.2-0.1l-0.1-0.1l-0.2-0.1l-0.1-0.1l-0.1-0.1l-0.1-0.1l-0.1-0.1l-0.1-0.1l-0.1-0.1
		l-0.1-0.1l-0.1-0.1l-0.1-0.1l-0.1-0.1l-0.1-0.1l-0.1-0.1l-0.1-0.1l-0.1-0.1l-0.1-0.1l-0.1-0.1l-0.1-0.1l-0.1-0.1l-0.1-0.1l-0.1-0.1
		l-0.1-0.1l-0.1-0.1l-0.1-0.1l-0.1-0.1l-0.1-0.1l-0.1-0.1l-0.1-0.1l-0.1-0.1l-0.1-0.1l-0.1-0.1l-0.1-0.1l-0.1,0l-0.1,0l-0.1-0.1
		l-86.6-50.8l-0.1-0.1l-0.1-0.1l-0.1-0.1l-0.1-0.1L392,239l-0.1-0.1l-0.1-0.1l-0.1-0.1l-0.1-0.1l-0.1-0.1l-0.1-0.1l-0.1-0.1
		l-0.1-0.1l-0.1-0.1l-0.1-0.1l-0.1-0.1l-0.1-0.1l-0.1-0.1l-0.1-0.1l-0.1-0.1l-0.1-0.1l-0.1-0.1l-0.1-0.1l-0.1-0.1l-0.1-0.1l-0.1-0.1
		l-0.1-0.1l-0.1,0l-0.1-0.1l-0.1-0.1l-0.1-0.1l-0.1,0l-0.1,0l-0.1,0l-0.1-0.1l-0.1,0l-0.1-0.1l-0.1,0l-0.1,0l-0.1,0l-0.1,0l-0.1,0
		l-0.1,0l-0.1,0l-0.1,0l-0.1,0l-0.1,0l-0.1,0l-0.1,0l-0.1,0l-0.1,0l-0.1,0l-0.1,0l-0.1,0l-0.1,0l-0.1,0l-0.1,0l-0.1,0l-0.1,0l-0.1,0
		l-0.1,0l-0.1,0l-0.1,0l-0.1,0l-0.1,0l-0.1,0l-0.1,0l-0.1,0l-0.1,0l-0.1,0l-0.1,0l-0.1,0l-0.1,0l-0.1,0l-0.1,0l-0.1,0l-0.1,0l-0.1,0
		l-0.1,0l-0.1,0l-0.1,0l-0.1,0l-0.1,0l-0.1,0l-0.1,0l-0.1,0l-0.1,0l-0.1,0l-0.1,0l-0.1,0l-0.1,0l-0.1,0l-0.1,0l-0.1,0l-0.1,0l-0.1,0
		l-0.1,0l-0.1,0l-0.1,0l-0.1,0l-0.1,0l-0.1,0l-0.1,0l-0.1,0l-0.1,0l-0.1,0l-0.1,0l-0.1,0l-0.1,0l-0.1,0l-0.1,0l-0.1,0l-0.1,0h-0.1
		l-0.1,0l-0.1,0h-0.1l-0.1,0l-0.1,0l-0.1,0l-0.1,0h-0.3l-0.1,0h-0.2L377.3,235.2z"/>
	<polygon fill-rule="evenodd" fill="#FF4088" points="268.6,413.1 268.6,413.2 268.6,413.4 268.7,413.5 268.7,413.6 268.7,413.8 
		268.7,413.9 268.7,414.1 268.7,414.2 268.7,414.3 268.7,414.5 268.7,414.6 268.7,414.7 268.7,414.9 268.8,415 268.8,415.1 
		268.8,415.3 268.8,415.4 268.8,415.5 268.8,415.7 268.8,415.8 268.9,415.9 268.9,416.1 268.9,416.2 268.9,416.3 268.9,416.5 
		268.9,416.6 269,416.7 269,416.9 269,417 269,417.1 269,417.3 269.1,417.4 269.1,417.5 269.1,417.7 269.1,417.8 269.2,417.9 
		269.2,418 269.2,418.2 269.2,418.3 269.3,418.4 269.3,418.6 269.3,418.7 269.3,418.8 269.4,419 269.4,419.1 269.4,419.2 
		269.5,419.3 269.5,419.5 269.5,419.6 269.6,419.7 269.6,419.9 269.6,420 269.7,420.1 269.7,420.2 269.7,420.4 269.8,420.5 
		269.8,420.6 269.8,420.8 269.8,420.9 269.9,421 269.9,421.1 270,421.3 270,421.4 270,421.5 270.1,421.6 270.1,421.8 270.1,421.9 
		270.2,422 270.2,422.1 270.3,422.3 270.3,422.4 270.4,422.5 270.4,422.6 270.5,422.8 270.5,422.9 270.5,423 270.6,423.1 
		270.6,423.3 270.7,423.4 270.7,423.5 270.8,423.6 270.8,423.7 270.9,423.9 270.9,424 271,424.1 271,424.2 271.1,424.4 271.1,424.5 
		271.2,424.6 271.2,424.7 271.3,424.9 271.3,425 271.4,425.1 271.4,425.2 271.5,425.3 271.5,425.5 271.6,425.6 271.6,425.7 
		271.7,425.8 271.7,426 271.8,426.1 271.8,426.2 271.9,426.3 272,426.4 272,426.5 272.1,426.7 272.1,426.8 272.2,426.9 272.3,427 
		272.3,427.1 272.4,427.2 272.5,427.4 272.5,427.5 272.6,427.6 272.6,427.7 272.7,427.8 272.8,427.9 272.8,428 272.9,428.2 
		273,428.3 273,428.4 273.1,428.5 273.2,428.6 273.2,428.7 273.3,428.8 273.4,428.9 273.4,429.1 273.5,429.2 273.6,429.3 
		273.6,429.4 273.7,429.5 273.8,429.6 273.9,429.7 273.9,429.8 274,429.9 274.1,430 274.1,430.2 274.2,430.3 274.3,430.4 
		274.4,430.5 274.4,430.6 274.5,430.7 274.6,430.8 274.7,430.9 274.7,431 274.8,431.1 274.9,431.2 275,431.3 275.1,431.4 
		275.1,431.6 275.2,431.7 275.3,431.8 275.4,431.9 275.4,432 275.5,432.1 275.6,432.2 275.7,432.3 275.8,432.4 275.9,432.5 
		276,432.6 276,432.7 276.1,432.8 276.2,432.9 276.3,433 276.4,433.1 276.5,433.2 276.5,433.3 276.6,433.4 276.7,433.5 276.8,433.6 
		276.9,433.7 277,433.8 277.1,433.9 277.2,434 277.2,434.1 277.3,434.2 277.4,434.3 277.5,434.4 277.6,434.5 277.7,434.6 
		277.8,434.7 277.9,434.7 278,434.8 278.1,434.9 278.2,435 278.2,435.1 278.3,435.2 278.4,435.3 278.5,435.4 278.6,435.5 
		278.7,435.6 278.8,435.7 278.9,435.8 279,435.9 279.1,435.9 279.2,436 279.3,436.1 279.4,436.2 279.5,436.3 279.6,436.4 
		279.7,436.5 279.8,436.6 279.9,436.7 280,436.7 280.1,436.8 280.2,436.9 280.3,437 280.4,437.1 280.5,437.2 280.6,437.2 
		280.7,437.3 280.8,437.4 280.9,437.5 281,437.6 281.1,437.7 281.2,437.7 281.3,437.8 281.4,437.9 281.5,438 281.7,438.1 
		281.8,438.2 281.9,438.2 282,438.3 282.1,438.4 282.2,438.5 282.3,438.5 282.4,438.6 282.5,438.7 282.6,438.8 282.7,438.8 
		282.8,438.9 283,439 283.1,439.1 283.2,439.1 283.3,439.2 283.4,439.3 283.5,439.4 283.6,439.4 283.7,439.5 283.9,439.6 284,439.7 
		284.1,439.7 284.2,439.8 284.3,439.9 284.4,439.9 284.6,440 284.7,440.1 364.8,486.9 364.9,487 365,487 365.1,487.1 365.2,487.1 
		365.2,487.1 365.3,487.2 365.4,487.2 365.5,487.3 365.6,487.3 365.7,487.4 365.8,487.4 365.9,487.5 366,487.5 366.1,487.6 
		366.2,487.6 366.2,487.7 366.3,487.7 366.4,487.8 366.5,487.8 366.6,487.9 366.7,487.9 366.8,487.9 366.9,488 367,488 367.1,488.1 
		367.2,488.1 367.2,488.1 367.3,488.2 367.4,488.2 367.5,488.3 367.6,488.3 367.7,488.3 367.8,488.4 367.9,488.4 368,488.5 
		368.1,488.5 368.2,488.5 368.3,488.6 368.4,488.6 368.4,488.6 368.5,488.7 368.6,488.7 368.7,488.8 368.8,488.8 368.9,488.8 
		369,488.9 369.1,488.9 369.2,488.9 369.3,489 369.4,489 369.5,489 369.6,489.1 369.8,489.1 369.9,489.2 370.1,489.2 370.3,489.3 
		370.5,489.3 370.7,489.4 370.9,489.4 371.1,489.5 371.3,489.6 371.5,489.6 371.7,489.6 371.9,489.7 372,489.7 372.2,489.8 
		372.4,489.8 372.6,489.9 372.8,489.9 373,489.9 373.2,490 373.4,490 373.6,490 373.8,490.1 374,490.1 374.2,490.1 374.4,490.1 
		374.6,490.2 374.8,490.2 375,490.2 375.2,490.2 375.3,490.2 375.5,490.2 375.7,490.2 375.9,490.3 376.1,490.3 376.3,490.3 
		376.5,490.3 377.5,490.3 377.7,490.3 377.9,490.3 378.1,490.3 378.3,490.3 378.5,490.2 378.7,490.2 378.9,490.2 379.1,490.2 
		379.3,490.2 379.5,490.2 379.7,490.2 379.9,490.1 380.1,490.1 380.3,490.1 380.5,490.1 380.7,490 380.9,490 381,490 381.2,489.9 
		381.4,489.9 381.6,489.9 381.8,489.8 382,489.8 382.2,489.8 382.4,489.7 382.6,489.7 382.8,489.6 383,489.6 383.2,489.5 
		383.4,489.5 383.5,489.4 383.7,489.4 383.9,489.3 384.1,489.3 384.3,489.2 384.4,489.2 384.5,489.2 384.6,489.1 384.7,489.1 
		384.8,489.1 384.9,489 385,489 385.1,489 385.2,489 385.3,488.9 385.4,488.9 385.5,488.9 385.5,488.8 385.6,488.8 385.7,488.8 
		385.8,488.7 385.9,488.7 386,488.7 386.1,488.6 386.2,488.6 386.3,488.6 386.4,488.5 386.5,488.5 386.6,488.4 386.7,488.4 
		386.8,488.4 386.8,488.3 386.9,488.3 387,488.2 387.1,488.2 387.2,488.2 387.3,488.1 387.4,488.1 387.5,488 387.6,488 387.7,488 
		387.8,487.9 387.9,487.9 387.9,487.8 388,487.8 388.1,487.7 388.2,487.7 388.3,487.6 388.4,487.6 388.5,487.5 388.6,487.5 
		388.7,487.4 388.8,487.4 388.9,487.4 388.9,487.3 389,487.3 389.1,487.2 477.9,437.8 478,437.7 478.1,437.6 478.2,437.6 
		478.3,437.5 478.4,437.5 478.5,437.4 478.5,437.4 478.6,437.3 478.7,437.3 478.8,437.2 478.9,437.1 479,437.1 479.1,437 479.2,437 
		479.3,436.9 479.4,436.9 479.5,436.8 479.6,436.7 479.7,436.7 479.7,436.6 479.8,436.6 479.9,436.5 480,436.5 480.1,436.4 
		480.2,436.3 480.3,436.3 480.3,436.2 480.4,436.1 480.5,436.1 480.6,436 480.7,436 480.8,435.9 480.9,435.8 480.9,435.8 481,435.7 
		481.1,435.6 481.2,435.6 481.3,435.5 481.4,435.4 481.4,435.4 481.5,435.3 481.6,435.3 481.7,435.2 481.8,435.1 481.9,435.1 
		481.9,435 482,434.9 482.1,434.9 482.2,434.8 482.3,434.7 482.4,434.6 482.4,434.6 482.5,434.5 482.6,434.4 482.7,434.4 
		482.8,434.3 482.8,434.2 482.9,434.1 483,434.1 483.1,434 483.1,433.9 483.2,433.8 483.3,433.8 483.4,433.7 483.4,433.6 
		483.5,433.5 483.6,433.5 483.7,433.4 483.7,433.3 483.8,433.2 483.9,433.2 484,433.1 484,433 484.1,432.9 484.2,432.9 484.2,432.8 
		484.3,432.7 484.4,432.6 484.5,432.5 484.5,432.5 484.6,432.4 484.7,432.3 484.7,432.2 484.8,432.2 484.9,432.1 484.9,432 
		485,431.9 485.1,431.8 485.1,431.8 485.2,431.7 485.3,431.6 485.4,431.5 485.4,431.4 485.5,431.4 485.6,431.3 485.6,431.2 
		485.7,431.1 485.7,431 485.8,431 485.9,430.9 485.9,430.8 486,430.7 486,430.6 486.1,430.5 486.2,430.5 486.2,430.4 486.3,430.3 
		486.4,430.2 486.4,430.1 486.5,430 486.5,429.9 486.6,429.9 486.6,429.8 486.7,429.7 486.8,429.6 486.8,429.5 486.9,429.4 
		486.9,429.3 487,429.3 487.1,429.2 487.1,429.1 487.2,429 487.2,428.9 487.3,428.8 487.3,428.7 487.4,428.6 487.4,428.5 
		487.5,428.4 487.5,428.4 487.6,428.3 487.6,428.2 487.7,428.1 487.7,428 487.8,427.9 487.8,427.8 487.9,427.7 487.9,427.6 
		488,427.5 488,427.4 488.1,427.3 488.1,427.2 488.2,427.2 488.2,427.1 488.3,427 488.3,426.9 488.4,426.8 488.4,426.7 488.5,426.6 
		488.5,426.5 488.6,426.4 488.6,426.3 488.6,426.2 488.7,426.1 488.7,426 488.8,425.9 488.8,425.8 488.9,425.7 488.9,425.6 
		489,425.5 489,425.4 489,425.3 489.1,425.3 489.1,425.2 489.1,425.1 489.2,425 489.2,424.9 489.3,424.8 489.3,424.7 489.3,424.6 
		489.4,424.5 489.4,424.4 489.4,424.3 489.5,424.2 489.5,424.1 489.5,424 489.6,423.9 489.6,423.8 489.7,423.7 489.7,423.6 
		489.7,423.5 489.8,423.4 489.8,423.3 489.8,423.2 489.9,423.1 489.9,423 489.9,422.9 490,422.8 490,422.7 490,422.6 490,422.5 
		490.1,422.4 490.1,422.3 490.1,422.2 490.1,422.1 490.2,422 490.2,421.9 490.2,421.8 490.2,421.7 490.3,421.6 490.3,421.5 
		490.3,421.4 490.3,421.3 490.4,421.2 490.4,421.1 490.4,421 490.4,420.9 490.5,420.7 490.5,420.7 490.5,420.5 490.5,420.4 
		490.5,420.3 490.6,420.2 490.6,420.1 490.6,420 490.6,419.9 490.6,419.8 490.7,419.7 490.7,419.6 490.7,419.5 490.7,419.4 
		490.7,419.3 490.7,419.2 490.8,419.1 490.8,419 490.8,418.9 490.8,418.8 490.8,418.7 490.8,418.5 490.8,418.4 490.9,418.3 
		490.9,418.2 490.9,418.1 490.9,418 490.9,417.9 490.9,417.8 490.9,417.7 490.9,417.6 490.9,417.5 490.9,417.4 490.9,417.3 
		491,417.2 491,417.1 491,416.9 491,416.8 491,416.7 491,416.6 491,416.5 491,416.3 491,416.2 491,310.3 491,310.2 491,310.1 
		491,310 491,309.9 491,309.8 491,309.7 491,309.6 491,309.5 491,309.4 491,309.3 490.9,309.2 490.9,309.1 490.9,309 490.9,308.9 
		490.9,308.8 490.9,308.7 490.9,308.6 490.9,308.5 490.9,308.4 490.9,308.3 490.9,308.2 490.8,308.1 490.8,308 490.8,308 
		490.8,307.9 490.8,307.8 490.8,307.7 490.8,307.6 490.7,307.4 490.7,307.2 490.7,307 490.7,306.8 490.6,306.6 490.6,306.4 
		490.5,306.2 490.5,306 490.5,305.8 490.4,305.6 490.4,305.5 490.3,305.3 490.3,305.1 490.2,304.9 490.2,304.7 490.1,304.5 
		490.1,304.3 490,304.1 490,303.9 489.9,303.7 489.9,303.6 489.8,303.4 489.7,303.2 489.7,303 489.6,302.8 489.5,302.6 489.5,302.5 
		489.4,302.3 489.3,302.1 489.3,301.9 489.2,301.7 489.1,301.6 489,301.4 489,301.2 488.9,301 488.8,300.8 488.7,300.7 488.6,300.5 
		488.6,300.3 488.5,300.2 488.4,300 488.3,299.8 488.2,299.6 488.1,299.5 488,299.3 487.9,299.1 487.8,298.9 487.7,298.8 
		487.6,298.6 487.5,298.4 487.4,298.3 487.3,298.1 487.2,297.9 487.1,297.8 487,297.6 486.9,297.5 486.8,297.3 486.7,297.1 
		486.6,297 486.5,296.8 486.4,296.7 486.3,296.5 486.1,296.4 486,296.2 485.9,296.1 485.8,295.9 485.7,295.8 485.6,295.6 
		485.4,295.4 485.3,295.3 485.2,295.2 485.1,295 484.9,294.9 484.8,294.7 484.7,294.6 484.5,294.4 484.4,294.3 484.3,294.1 
		484.1,294 484,293.9 483.9,293.7 483.7,293.6 483.6,293.5 483.4,293.3 483.3,293.2 483.1,293.1 483,292.9 482.8,292.8 482.7,292.7 
		482.5,292.5 482.4,292.4 482.2,292.3 482.1,292.2 481.9,292 481.9,292 481.8,291.9 481.7,291.9 481.6,291.8 481.6,291.7 
		481.5,291.7 481.4,291.6 481.3,291.6 481.2,291.5 481.2,291.4 481.1,291.4 481,291.3 480.9,291.3 480.9,291.2 480.8,291.1 
		480.7,291.1 480.6,291 480.5,291 480.5,290.9 480.4,290.9 480.3,290.8 480.2,290.8 480.1,290.7 480,290.6 480,290.6 479.9,290.5 
		479.8,290.5 479.7,290.4 479.6,290.4 479.5,290.3 479.5,290.3 479.4,290.2 479.3,290.2 479.2,290.1 392.6,239.3 392.5,239.2 
		392.4,239.2 392.2,239.1 392.1,239.1 392,239 391.9,238.9 391.8,238.9 391.7,238.8 391.6,238.7 391.4,238.7 391.3,238.6 
		391.2,238.6 391.1,238.5 391,238.4 390.9,238.4 390.8,238.3 390.6,238.3 390.5,238.2 390.4,238.1 390.3,238.1 390.2,238 390.1,238 
		390,237.9 389.8,237.9 389.7,237.8 389.6,237.8 389.5,237.7 389.4,237.7 389.3,237.6 389.1,237.5 389,237.5 388.9,237.4 
		388.8,237.4 388.7,237.4 388.6,237.3 388.4,237.3 388.3,237.2 388.2,237.2 388.1,237.1 387.9,237.1 387.8,237 387.7,237 
		387.6,236.9 387.5,236.9 387.4,236.8 387.2,236.8 387.1,236.8 387,236.7 386.9,236.7 386.8,236.6 386.6,236.6 386.5,236.6 
		386.4,236.5 386.3,236.5 386.2,236.5 386,236.4 385.9,236.4 385.8,236.3 385.7,236.3 385.5,236.3 385.4,236.2 385.3,236.2 
		385.2,236.2 385.1,236.1 384.9,236.1 384.8,236.1 384.7,236 384.6,236 384.4,236 384.3,235.9 384.2,235.9 384.1,235.9 384,235.9 
		383.8,235.8 383.7,235.8 383.6,235.8 383.5,235.8 383.3,235.7 383.2,235.7 383.1,235.7 383,235.7 382.9,235.6 382.7,235.6 
		382.6,235.6 382.5,235.6 382.4,235.6 382.2,235.5 382.1,235.5 382,235.5 381.9,235.5 381.7,235.5 381.6,235.4 381.5,235.4 
		381.4,235.4 381.2,235.4 381.1,235.4 381,235.4 380.9,235.3 380.8,235.3 380.6,235.3 380.5,235.3 380.4,235.3 380.3,235.3 
		380.1,235.3 380,235.2 379.9,235.2 379.8,235.2 379.6,235.2 379.5,235.2 379.4,235.2 379.3,235.2 379.1,235.2 379,235.2 
		378.9,235.2 378.8,235.2 378.7,235.2 378.5,235.2 378.4,235.2 378.3,235.2 378.2,235.1 378,235.1 377.8,235.1 377.7,235.1 
		377.4,235.1 377.3,235.2 377.2,235.2 377,235.2 376.9,235.2 376.8,235.2 376.7,235.2 376.5,235.2 376.4,235.2 376.3,235.2 
		376.1,235.2 376,235.2 375.9,235.2 375.8,235.2 375.6,235.2 375.5,235.3 375.4,235.3 375.3,235.3 375.1,235.3 375,235.3 
		374.9,235.3 374.8,235.3 374.6,235.3 374.5,235.4 374.4,235.4 374.2,235.4 374.1,235.4 374,235.4 373.9,235.4 373.7,235.5 
		373.6,235.5 373.5,235.5 373.4,235.5 373.2,235.5 373.1,235.5 373,235.6 372.9,235.6 372.8,235.6 372.6,235.6 372.5,235.6 
		372.4,235.7 372.3,235.7 372.1,235.7 372,235.7 371.9,235.8 371.8,235.8 371.6,235.8 371.5,235.8 371.4,235.8 371.3,235.9 
		371.1,235.9 371,235.9 370.9,236 370.8,236 370.7,236 370.5,236 370.4,236.1 370.3,236.1 370.2,236.1 370,236.2 369.9,236.2 
		369.8,236.2 369.7,236.2 369.6,236.3 369.4,236.3 369.3,236.3 369.2,236.4 369.1,236.4 368.9,236.5 368.8,236.5 368.7,236.5 
		368.6,236.6 368.5,236.6 368.3,236.6 368.2,236.7 368.1,236.7 368,236.8 367.9,236.8 367.7,236.8 367.6,236.9 367.5,236.9 
		367.4,237 367.2,237 367.1,237.1 367,237.1 366.9,237.1 366.8,237.2 366.6,237.2 366.5,237.3 366.4,237.3 366.3,237.4 366.2,237.4 
		366,237.5 365.9,237.5 365.8,237.6 365.7,237.6 365.6,237.7 365.5,237.7 365.3,237.8 365.2,237.8 365.1,237.9 365,237.9 364.9,238 
		364.8,238 364.6,238.1 364.5,238.2 364.4,238.2 364.3,238.3 364.2,238.3 364.1,238.4 363.9,238.4 363.8,238.5 363.7,238.6 
		363.6,238.6 363.5,238.7 363.4,238.7 363.3,238.8 363.1,238.9 363,238.9 362.9,239 362.8,239 362.7,239.1 362.6,239.2 362.5,239.2 
		362.4,239.3 362.2,239.4 362.1,239.4 362,239.5 361.9,239.6 361.8,239.6 361.7,239.7 361.6,239.8 284.7,287.1 284.6,287.2 
		284.5,287.3 284.4,287.4 284.2,287.4 284.1,287.5 284,287.6 283.9,287.7 283.8,287.8 283.7,287.8 283.6,287.9 283.4,288 
		283.3,288.1 283.2,288.1 283.1,288.2 283,288.3 282.9,288.4 282.8,288.5 282.7,288.5 282.6,288.6 282.5,288.7 282.3,288.8 
		282.2,288.8 282.1,288.9 282,289 281.9,289.1 281.8,289.2 281.7,289.2 281.6,289.3 281.5,289.4 281.4,289.5 281.3,289.6 
		281.2,289.7 281.1,289.8 281,289.8 280.9,289.9 280.8,290 280.7,290.1 280.6,290.2 280.5,290.3 280.4,290.3 280.3,290.4 
		280.2,290.5 280.1,290.6 280,290.7 279.9,290.8 279.8,290.9 279.7,291 279.6,291.1 279.5,291.2 279.4,291.2 279.3,291.3 
		279.2,291.4 279.1,291.5 279,291.6 278.9,291.7 278.8,291.8 278.7,291.9 278.6,292 278.5,292.1 278.4,292.2 278.3,292.3 
		278.2,292.4 278.1,292.5 278,292.6 277.9,292.7 277.8,292.8 277.7,292.9 277.6,293 277.6,293.1 277.5,293.2 277.4,293.2 
		277.3,293.3 277.2,293.4 277.1,293.5 277,293.7 276.9,293.8 276.8,293.9 276.7,294 276.7,294.1 276.6,294.2 276.5,294.3 
		276.4,294.4 276.3,294.5 276.2,294.6 276.1,294.7 276.1,294.8 276,294.9 275.9,295 275.8,295.1 275.7,295.2 275.6,295.3 
		275.6,295.4 275.5,295.5 275.4,295.6 275.3,295.8 275.2,295.9 275.2,296 275.1,296.1 275,296.2 274.9,296.3 274.9,296.4 
		274.8,296.5 274.7,296.6 274.6,296.7 274.6,296.8 274.5,297 274.4,297.1 274.3,297.2 274.3,297.3 274.2,297.4 274.1,297.5 
		274,297.6 274,297.7 273.9,297.9 273.8,298 273.8,298.1 273.7,298.2 273.6,298.3 273.5,298.4 273.5,298.5 273.4,298.7 273.3,298.8 
		273.3,298.9 273.2,299 273.1,299.1 273.1,299.2 273,299.3 272.9,299.5 272.9,299.6 272.8,299.7 272.7,299.8 272.7,299.9 
		272.6,300.1 272.5,300.2 272.5,300.3 272.4,300.4 272.4,300.5 272.3,300.7 272.2,300.8 272.2,300.9 272.1,301 272.1,301.1 
		272,301.3 271.9,301.4 271.9,301.5 271.8,301.6 271.8,301.7 271.7,301.9 271.7,302 271.6,302.1 271.5,302.2 271.5,302.4 
		271.4,302.5 271.4,302.6 271.3,302.7 271.3,302.8 271.2,303 271.2,303.1 271.1,303.2 271.1,303.3 271,303.5 271,303.6 270.9,303.7 
		270.9,303.8 270.8,304 270.8,304.1 270.7,304.2 270.7,304.3 270.6,304.5 270.6,304.6 270.5,304.7 270.5,304.9 270.5,305 
		270.4,305.1 270.4,305.2 270.3,305.4 270.3,305.5 270.3,305.6 270.2,305.8 270.2,305.9 270.1,306 270.1,306.1 270,306.3 270,306.4 
		270,306.5 269.9,306.6 269.9,306.8 269.9,306.9 269.8,307 269.8,307.2 269.7,307.3 269.7,307.4 269.7,307.6 269.6,307.7 
		269.6,307.8 269.6,307.9 269.5,308.1 269.5,308.2 269.5,308.3 269.5,308.5 269.4,308.6 269.4,308.7 269.4,308.9 269.3,309 
		269.3,309.1 269.3,309.3 269.3,309.4 269.2,309.5 269.2,309.7 269.2,309.8 269.2,309.9 269.1,310.1 269.1,310.2 269.1,310.3 
		269.1,310.5 269.1,310.6 269,310.7 269,310.9 269,311 269,311.1 269,311.3 268.9,311.4 268.9,311.5 268.9,311.7 268.9,311.8 
		268.9,311.9 268.8,312.1 268.8,312.2 268.8,312.4 268.8,312.5 268.8,312.6 268.8,312.8 268.8,312.9 268.7,313 268.7,313.2 
		268.7,313.3 268.7,313.5 268.7,313.6 268.7,313.7 268.7,313.9 268.7,314 268.7,314.1 268.7,314.3 268.7,314.4 268.6,314.6 
		268.6,314.7 268.6,314.8 268.6,315 268.6,315.1 268.6,315.2 268.6,315.4 268.6,412.4 268.6,412.5 268.6,413 	"/>
	<path fill="#FFFFFF" d="M319.1,441.2V282.6h33.2v57.8h55v-57.8h33.3v158.6h-33.3v-69.3h-55v69.3H319.1L319.1,441.2z"/>
</g>
<g>
	<path fill-rule="evenodd" d="M19.6,15.1L195.1,2.1c21.5-1.8,27.1-0.6,40.6,9.2l56,39.4c9.2,6.8,12.3,8.6,12.3,16v215.9
		c0,13.5-4.9,21.5-22.2,22.8L78.1,317.7c-12.9,0.6-19.1-1.2-25.9-9.8L11,254.4c-7.4-9.9-10.5-17.2-10.5-25.8V36.6
		C0.5,25.5,5.4,16.3,19.6,15.1z"/>
	<path fill-rule="evenodd" fill="#FFFFFF" d="M52.8,56.9c9.8,8,13.5,7.4,32,6.2l174.2-10.5c3.7,0,0.6-3.7-0.6-4.3l-28.9-20.9
		c-5.5-4.3-12.9-9.2-27.1-8L33.7,31.7c-6.2,0.6-7.4,3.7-4.9,6.2L52.8,56.9z"/>
	<path fill-rule="evenodd" fill="#FFFFFF" d="M63.3,97.5v183.3c0,9.9,4.9,13.5,16,12.9l191.5-11.1c11.1-0.6,12.3-7.4,12.3-15.4V85.2
		c0-8-3.1-12.3-9.9-11.7L73.1,85.2C65.8,85.8,63.3,89.5,63.3,97.5L63.3,97.5z"/>
	<path fill-rule="evenodd" d="M252.3,107.3c1.2,5.5,0,11.1-5.6,11.7l-9.2,1.8v135.3c-8,4.3-15.4,6.8-21.6,6.8
		c-9.9,0-12.3-3.1-19.7-12.3l-60.3-94.7v91.7l19.1,4.3c0,0,0,11.1-15.4,11.1l-42.5,2.5c-1.2-2.5,0-8.6,4.3-9.8l11.1-3.1V131.3
		l-15.4-1.2c-1.2-5.5,1.8-13.5,10.5-14.2l45.6-3.1l62.8,96v-84.9l-16-1.8c-1.2-6.8,3.7-11.7,9.8-12.3L252.3,107.3z"/>
</g>
</svg>
